{
  "name": "apis-member.contract",
  "$schema": "../../../node_modules/nx/schemas/project-schema.json",
  "projectType": "library",
  "sourceRoot": "libs/apis/member.contract",
  "targets": {
    "build": {
      "executor": "@nx-dotnet/core:build",
      "outputs": [
        "{workspaceRoot}/dist/libs/apis/member.contract",
        "{workspaceRoot}/dist/intermediates/libs/apis/member.contract"
      ],
      "options": {
        "configuration": "Debug",
        "noDependencies": true
      },
      "configurations": {
        "production": {
          "configuration": "Release"
        }
      }
    },
    "lint": {
      "executor": "@nx-dotnet/core:format"
    }
  },
  "tags": []
}
