{
  "migrations": [
    {
      "version": "15.7.0-beta.0",
      "description": "Split global configuration files into individual project.json files. This migration has been added automatically to the beginning of your migration set to retroactively make them work with the new version of Nx.",
      "cli": "nx",
      "implementation": "./src/migrations/update-15-7-0/split-configuration-into-project-json-files",
      "package": "@nx/workspace",
      "name": "15-7-0-split-configuration-into-project-json-files"
    },
    {
      "cli": "nx",
      "version": "15.8.2-beta.0",
      "description": "Updates the nx wrapper.",
      "implementation": "./src/migrations/update-15-8-2/update-nxw",
      "package": "nx",
      "name": "15.8.2-update-nx-wrapper"
    },
    {
      "cli": "nx",
      "version": "16.0.0-beta.0",
      "description": "Remove @nrwl/cli.",
      "implementation": "./src/migrations/update-16-0-0/remove-nrwl-cli",
      "package": "nx",
      "name": "16.0.0-remove-nrwl-cli"
    },
    {
      "cli": "nx",
      "version": "16.0.0-beta.9",
      "description": "Replace `dependsOn.projects` and `inputs` definitions with new configuration format.",
      "implementation": "./src/migrations/update-16-0-0/update-depends-on-to-tokens",
      "package": "nx",
      "name": "16.0.0-tokens-for-depends-on"
    },
    {
      "cli": "nx",
      "version": "16.0.0-beta.0",
      "description": "Replace @nrwl/nx-cloud with nx-cloud",
      "implementation": "./src/migrations/update-16-0-0/update-nx-cloud-runner",
      "package": "nx",
      "name": "16.0.0-update-nx-cloud-runner"
    },
    {
      "cli": "nx",
      "version": "16.2.0-beta.0",
      "description": "Remove outputPath from run commands",
      "implementation": "./src/migrations/update-16-2-0/remove-run-commands-output-path",
      "package": "nx",
      "name": "16.2.0-remove-output-path-from-run-commands"
    },
    {
      "cli": "nx",
      "version": "16.6.0-beta.6",
      "description": "Prefix outputs with {workspaceRoot}/{projectRoot} if needed",
      "implementation": "./src/migrations/update-15-0-0/prefix-outputs",
      "package": "nx",
      "name": "16.6.0-prefix-outputs"
    },
    {
      "cli": "nx",
      "version": "16.8.0-beta.3",
      "description": "Escape $ in env variables",
      "implementation": "./src/migrations/update-16-8-0/escape-dollar-sign-env-variables",
      "x-repair-skip": true,
      "package": "nx",
      "name": "16.8.0-escape-dollar-sign-env"
    },
    {
      "cli": "nx",
      "version": "17.0.0-beta.1",
      "description": "Updates the default cache directory to .nx/cache",
      "implementation": "./src/migrations/update-17-0-0/move-cache-directory",
      "package": "nx",
      "name": "17.0.0-move-cache-directory"
    },
    {
      "cli": "nx",
      "version": "17.0.0-beta.3",
      "description": "Use minimal config for tasksRunnerOptions",
      "implementation": "./src/migrations/update-17-0-0/use-minimal-config-for-tasks-runner-options",
      "package": "nx",
      "name": "17.0.0-use-minimal-config-for-tasks-runner-options"
    },
    {
      "version": "17.0.0-rc.1",
      "description": "Migration for v17.0.0-rc.1",
      "implementation": "./src/migrations/update-17-0-0/rm-default-collection-npm-scope",
      "package": "nx",
      "name": "rm-default-collection-npm-scope"
    },
    {
      "cli": "nx",
      "version": "17.3.0-beta.6",
      "description": "Updates the nx wrapper.",
      "implementation": "./src/migrations/update-17-3-0/update-nxw",
      "package": "nx",
      "name": "17.3.0-update-nx-wrapper"
    },
    {
      "cli": "nx",
      "version": "18.0.0-beta.2",
      "description": "Updates nx.json to disabled adding plugins when generating projects in an existing Nx workspace",
      "implementation": "./src/migrations/update-18-0-0/disable-crystal-for-existing-workspaces",
      "x-repair-skip": true,
      "package": "nx",
      "name": "18.0.0-disable-adding-plugins-for-existing-workspaces"
    },
    {
      "version": "18.1.0-beta.3",
      "description": "Moves affected.defaultBase to defaultBase in `nx.json`",
      "implementation": "./src/migrations/update-17-2-0/move-default-base",
      "package": "nx",
      "name": "move-default-base-to-nx-json-root"
    },
    {
      "version": "15.7.0-beta.0",
      "description": "Split global configuration files (e.g., workspace.json) into individual project.json files.",
      "cli": "nx",
      "implementation": "./src/migrations/update-15-7-0/split-configuration-into-project-json-files",
      "package": "@nx/workspace",
      "name": "15-7-0-split-configuration-into-project-json-files"
    },
    {
      "cli": "nx",
      "version": "16.0.0-beta.1",
      "description": "Replace @nx/workspace with @nx/workspace",
      "implementation": "./src/migrations/update-16-0-0-add-nx-packages/update-16-0-0-add-nx-packages",
      "package": "@nx/workspace",
      "name": "update-16-0-0-add-nx-packages"
    },
    {
      "version": "16.0.0-beta.4",
      "description": "Generates a plugin called 'workspace-plugin' containing your workspace generators.",
      "cli": "nx",
      "implementation": "./src/migrations/update-16-0-0/move-workspace-generators-to-local-plugin",
      "package": "@nx/workspace",
      "name": "16-0-0-move-workspace-generators-into-local-plugin"
    },
    {
      "version": "16.0.0-beta.9",
      "description": "Fix .babelrc presets if it contains an invalid entry for @nx/web/babel.",
      "cli": "nx",
      "implementation": "./src/migrations/update-16-0-0/fix-invalid-babelrc",
      "package": "@nx/workspace",
      "name": "16-0-0-fix-invalid-babelrc"
    },
    {
      "cli": "nx",
      "version": "15.8.0-beta.0",
      "description": "Rename .lib.swcrc to .swcrc for better SWC support throughout the workspace",
      "factory": "./src/migrations/update-15-8-0/rename-swcrc-config",
      "package": "@nx/js",
      "name": "rename-swcrc-config"
    },
    {
      "cli": "nx",
      "version": "16.0.0-beta.1",
      "description": "Replace @nx/js with @nx/js",
      "implementation": "./src/migrations/update-16-0-0-add-nx-packages/update-16-0-0-add-nx-packages",
      "package": "@nx/js",
      "name": "update-16-0-0-add-nx-packages"
    },
    {
      "cli": "nx",
      "version": "16.6.0-beta.0",
      "description": "Explicitly set 'updateBuildableProjectDepsInPackageJson' to 'true' in targets that rely on that value as the default.",
      "factory": "./src/migrations/update-16-6-0/explicitly-set-projects-to-update-buildable-deps",
      "package": "@nx/js",
      "name": "explicitly-set-projects-to-update-buildable-deps"
    },
    {
      "cli": "nx",
      "version": "16.8.2-beta.0",
      "description": "Remove invalid options (strict, noInterop) for ES6 type modules.",
      "factory": "./src/migrations/update-16-8-2/update-swcrc",
      "package": "@nx/js",
      "name": "16-8-2-update-swcrc"
    },
    {
      "cli": "nx",
      "version": "17.0.2",
      "description": "Remove deprecated build options",
      "implementation": "./src/migrations/update-17-0-0/remove-deprecated-build-options",
      "package": "@nx/js",
      "name": "update-17-0-0-remove-deprecated-build-options"
    },
    {
      "cli": "nx",
      "version": "16.0.0-beta.1",
      "description": "Replace @nx/eslint-plugin with @nx/eslint-plugin",
      "implementation": "./src/migrations/update-16-0-0-add-nx-packages/update-16-0-0-add-nx-packages",
      "package": "@nx/eslint-plugin",
      "name": "update-16-0-0-add-nx-packages"
    },
    {
      "cli": "nx",
      "version": "17.2.6-beta.1",
      "description": "Rename workspace rules from @nx/workspace/name to @nx/workspace-name",
      "implementation": "./src/migrations/update-17-2-6-rename-workspace-rules/rename-workspace-rules",
      "package": "@nx/eslint-plugin",
      "name": "update-17-2-6-rename-workspace-rules"
    },
    {
      "cli": "nx",
      "version": "15.7.1-beta.0",
      "description": "Add node_modules to root eslint ignore",
      "factory": "./src/migrations/update-15-7-1/add-eslint-ignore",
      "package": "@nrwl/linter",
      "name": "add-eslint-ignore"
    },
    {
      "cli": "nx",
      "version": "16.0.0-beta.1",
      "description": "Replace @nrwl/linter with @nx/linter",
      "implementation": "./src/migrations/update-16-0-0-add-nx-packages/update-16-0-0-add-nx-packages",
      "package": "@nrwl/linter",
      "name": "update-16-0-0-add-nx-packages"
    },
    {
      "version": "16.8.0",
      "description": "update-16-8-0-add-ignored-files",
      "implementation": "./src/migrations/update-16-8-0-add-ignored-files/update-16-8-0-add-ignored-files",
      "package": "@nrwl/linter",
      "name": "update-16-8-0-add-ignored-files"
    },
    {
      "version": "17.0.0-beta.7",
      "description": "update-17-0-0-rename-to-eslint",
      "implementation": "./src/migrations/update-17-0-0-rename-to-eslint/update-17-0-0-rename-to-eslint",
      "package": "@nrwl/linter",
      "name": "update-17-0-0-rename-to-eslint"
    },
    {
      "version": "17.1.0-beta.1",
      "description": "Updates for @typescript-utils/utils v6.9.1+",
      "implementation": "./src/migrations/update-17-1-0/update-typescript-eslint",
      "package": "@nrwl/linter",
      "name": "update-typescript-eslint"
    },
    {
      "version": "17.2.0-beta.0",
      "description": "Simplify eslintFilePatterns",
      "implementation": "./src/migrations/update-17-2-0/simplify-eslint-patterns",
      "package": "@nrwl/linter",
      "name": "simplify-eslint-patterns"
    },
    {
      "version": "17.2.9",
      "description": "Move executor options to target defaults",
      "implementation": "./src/migrations/update-17-2-9/move-options-to-target-defaults",
      "package": "@nrwl/linter",
      "name": "move-options-to-target-defaults"
    },
    {
      "cli": "nx",
      "version": "16.0.0-beta.1",
      "description": "Replace @nrwl/cypress with @nx/cypress",
      "implementation": "./src/migrations/update-16-0-0-add-nx-packages/update-16-0-0-add-nx-packages",
      "package": "@nrwl/cypress",
      "name": "update-16-0-0-add-nx-packages"
    },
    {
      "cli": "nx",
      "version": "16.2.0-beta.0",
      "description": "Normalize tsconfig.cy.json files to be located at '<projectRoot>/cypress/tsconfig.json'",
      "implementation": "./src/migrations/update-16-2-0/update-cy-tsconfig",
      "package": "@nrwl/cypress",
      "name": "update-16-2-0-normalize-tsconfigs"
    },
    {
      "cli": "nx",
      "version": "16.4.0-beta.10",
      "description": "Remove tsconfig.e2e.json and add settings to project tsconfig.json. tsConfigs executor option is now deprecated. The project level tsconfig.json file should be used instead.",
      "implementation": "./src/migrations/update-16-4-0/tsconfig-sourcemaps",
      "package": "@nrwl/cypress",
      "name": "update-16-3-0-remove-old-tsconfigs"
    },
    {
      "cli": "nx",
      "version": "16.8.0-beta.4",
      "description": "Update to Cypress v13. Most noteable change is video recording is off by default. This migration will only update if the workspace is already on Cypress v12. https://docs.cypress.io/guides/references/migration-guide#Migrating-to-Cypress-130",
      "implementation": "./src/migrations/update-16-8-0/cypress-13",
      "package": "@nrwl/cypress",
      "name": "update-16-8-0-cypress-13"
    },
    {
      "cli": "nx",
      "version": "18.1.0-beta.3",
      "description": "Update to Cypress ^13.6.6 if the workspace is using Cypress v13 to ensure workspaces don't use v13.6.5 which has an issue when verifying Cypress.",
      "implementation": "./src/migrations/update-18-1-0/update-cypress-version-13-6-6",
      "package": "@nrwl/cypress",
      "name": "update-cypress-version-13-6-6"
    },
    {
      "version": "15.8.0-beta.0",
      "cli": "nx",
      "description": "Update jest configs to support jest 29 changes (https://jestjs.io/docs/upgrading-to-jest29)",
      "factory": "./src/migrations/update-15-8-0/update-configs-jest-29",
      "package": "@nrwl/jest",
      "name": "update-configs-jest-29"
    },
    {
      "version": "15.8.0-beta.0",
      "cli": "nx",
      "description": "Update jest test files to support jest 29 changes (https://jestjs.io/docs/upgrading-to-jest29)",
      "factory": "./src/migrations/update-15-8-0/update-tests-jest-29",
      "package": "@nrwl/jest",
      "name": "update-tests-jest-29"
    },
    {
      "cli": "nx",
      "version": "16.0.0-beta.1",
      "description": "Replace @nrwl/jest with @nx/jest",
      "implementation": "./src/migrations/update-16-0-0-add-nx-packages/update-16-0-0-add-nx-packages",
      "package": "@nrwl/jest",
      "name": "update-16-0-0-add-nx-packages"
    },
    {
      "cli": "nx",
      "version": "16.5.0-beta.2",
      "description": "Add test-setup.ts to ignored files in production input",
      "implementation": "./src/migrations/update-16-5-0/add-test-setup-to-inputs-ignore",
      "package": "@nrwl/jest",
      "name": "add-test-setup-to-inputs-ignore"
    },
    {
      "version": "17.1.0-beta.2",
      "description": "Move jest executor options to nx.json targetDefaults",
      "implementation": "./src/migrations/update-17-1-0/move-options-to-target-defaults",
      "package": "@nrwl/jest",
      "name": "move-options-to-target-defaults"
    },
    {
      "cli": "nx",
      "version": "15.6.3-beta.0",
      "description": "Creates or updates webpack.config.js file with the new options for webpack.",
      "factory": "./src/migrations/update-15-6-3/webpack-config-setup",
      "package": "@nrwl/react",
      "name": "react-webpack-config-setup"
    },
    {
      "cli": "nx",
      "version": "16.0.0-beta.1",
      "description": "Replace @nrwl/react with @nx/react",
      "implementation": "./src/migrations/update-16-0-0-add-nx-packages/update-16-0-0-add-nx-packages",
      "package": "@nrwl/react",
      "name": "update-16-0-0-add-nx-packages"
    },
    {
      "cli": "nx",
      "version": "16.2.0-beta.0",
      "description": "Remove react-test-renderer from package.json",
      "implementation": "./src/migrations/update-16-2-0-remove-package/update-16-2-0-remove-package",
      "package": "@nrwl/react",
      "name": "update-16-2-0-remove-package"
    },
    {
      "cli": "nx",
      "version": "16.3.0-beta.2",
      "description": "Remove @types/react-router-dom from package.json",
      "implementation": "./src/migrations/update-16-3-0/remove-types-react-router-dom-package",
      "package": "@nrwl/react",
      "name": "remove-types-react-router-dom"
    },
    {
      "cli": "nx",
      "version": "16.7.0-beta.2",
      "description": "Add @babel/core to package.json if @babel/preset-react is present",
      "implementation": "./src/migrations/update-16-7-0/add-babel-core",
      "package": "@nrwl/react",
      "name": "add-babel-core"
    },
    {
      "cli": "nx",
      "version": "16.7.0-beta.2",
      "description": "Add @nx/react types to tsconfig types array",
      "implementation": "./src/migrations/update-16-7-0-add-typings/update-16-7-0-add-typings",
      "package": "@nrwl/react",
      "name": "update-16-7-0-add-typings"
    },
    {
      "cli": "nx",
      "version": "18.0.0-beta.0",
      "description": "Add NX_MF_DEV_SERVER_STATIC_REMOTES to inputs for task hashing when '@nx/webpack:webpack' is used for Module Federation.",
      "factory": "./src/migrations/update-18-0-0/add-mf-env-var-to-target-defaults",
      "package": "@nrwl/react",
      "name": "add-module-federation-env-var-to-target-defaults"
    },
    {
      "cli": "nx",
      "version": "18.1.1-beta.0",
      "description": "Ensure targetDefaults inputs for task hashing when '@nx/webpack:webpack' is used are correct for Module Federation.",
      "factory": "./src/migrations/update-18-1-1/fix-target-defaults-inputs",
      "package": "@nrwl/react",
      "name": "fix-target-defaults-for-webpack"
    },
    {
      "cli": "nx",
      "version": "15.6.3-beta.0",
      "description": "Creates or updates webpack.config.js file with the new options for webpack.",
      "factory": "./src/migrations/update-15-6-3/webpack-config-setup",
      "package": "@nrwl/webpack",
      "name": "webpack-config-setup"
    },
    {
      "cli": "nx",
      "version": "15.7.2-beta.0",
      "description": "Add the babelUpwardRootMode option to the build executor options.",
      "factory": "./src/migrations/update-15-7-2/add-babelUpwardRootMode-flag",
      "package": "@nrwl/webpack",
      "name": "add-babelUpwardRootMode-flag"
    },
    {
      "cli": "nx",
      "version": "16.0.0-beta.1",
      "description": "Replace @nrwl/webpack with @nx/webpack",
      "implementation": "./src/migrations/update-16-0-0-add-nx-packages/update-16-0-0-add-nx-packages",
      "package": "@nrwl/webpack",
      "name": "update-16-0-0-add-nx-packages"
    },
    {
      "cli": "nx",
      "version": "17.2.1-beta.0",
      "description": "Add webpack.config.js file when webpackConfig is not defined",
      "implementation": "./src/migrations/update-17-2-1/webpack-config-setup",
      "package": "@nrwl/webpack",
      "name": "update-17-2-1-webpack-config-setup"
    }
  ]
}
