{
  "$schema": "./node_modules/nx/schemas/nx-schema.json",
  "npmScope": "alofa",
  "tasksRunnerOptions": {
    "default": {
      "runner": "nx-cloud",
      "options": {
        "cacheableOperations": [
          "build",
          "lint",
          "test",
          "e2e",
          "codegen",
          "swagger",
          "codegen",
          "swagger",
          "codegen",
          "swagger",
          "codegen",
          "swagger",
          "codegen",
          "swagger",
          "codegen",
          "swagger",
          "codegen",
          "swagger",
          "codegen",
          "swagger",
          "codegen",
          "swagger",
          "codegen",
          "swagger"
        ],
        "accessToken": "YWVhMDA0ZGItNGJjNS00MTY5LTk3YmMtMTg1MDk4ZDk4ZDZkfHJlYWQtd3JpdGU="
      }
    }
  },
  "targetDefaults": {
    "build": {
      "dependsOn": [
        "^build",
        "codegen",
        "^codegen",
        "codegen",
        "^codegen",
        "codegen",
        "^codegen",
        "codegen",
        "^codegen",
        "codegen",
        "^codegen",
        "codegen",
        "^codegen",
        "codegen",
        "^codegen",
        "codegen",
        "^codegen",
        "codegen",
        "^codegen",
        "codegen",
        "^codegen"
      ],
      "inputs": [
        "production",
        "^production"
      ]
    },
    "e2e": {
      "inputs": [
        "default",
        "^production"
      ]
    },
    "lint": {
      "inputs": [
        "default",
        "{workspaceRoot}/.eslintrc.json"
      ]
    },
    "test": {
      "inputs": [
        "default",
        "^production",
        "{workspaceRoot}/jest.preset.js"
      ]
    }
  },
  "namedInputs": {
    "default": [
      "{projectRoot}/**/*",
      "sharedGlobals"
    ],
    "production": [
      "default",
      "!{projectRoot}/.eslintrc.json",
      "!{projectRoot}/**/?(*.)+(spec|test).[jt]s?(x)?(.snap)",
      "!{projectRoot}/tsconfig.spec.json",
      "!{projectRoot}/jest.config.[jt]s"
    ],
    "sharedGlobals": [
      "{workspaceRoot}/babel.config.json"
    ]
  },
  "generators": {
    "@nrwl/react": {
      "application": {
        "style": "scss",
        "linter": "eslint",
        "bundler": "webpack",
        "babel": true
      },
      "component": {
        "style": "scss"
      },
      "library": {
        "style": "scss",
        "linter": "eslint",
        "unitTestRunner": "none"
      }
    }
  },
  "plugins": [
    "@nx-dotnet/core"
  ]
}