{
  "Alofa.Member.Endpoint": {
    "commandName": "Project",
    "dotnetRunMessages": "true",
    "launchBrowser": true,
    "applicationUrl": "http://localhost:5001",
    "environmentVariables": {
      "ASPNETCORE_ENVIRONMENT": "Development"
    }
  },
  "profiles": {
    "Alofa.Member.Endpoint": {
      "commandName": "Project",
      "environmentVariables": {
        "ASPNETCORE_ENVIRONMENT": "Development"
      },
      "applicationUrl": "http://localhost:5001"
    }
  }
}