{
  "name": "alofa-portal",
  "$schema": "../../node_modules/nx/schemas/project-schema.json",
  "sourceRoot": "apps/alofa-portal/src",
  "projectType": "application",
  "tags": [],
  "targets": {
    "build": {
      "executor": "@nrwl/webpack:webpack",
      "outputs": ["{options.outputPath}"],
      "defaultConfiguration": "production",
      "options": {
        "compiler": "babel",
        "outputPath": "dist/apps/alofa-portal",
        "index": "apps/alofa-portal/src/index.html",
        "baseHref": "/",
        "main": "apps/alofa-portal/src/main.tsx",
        "tsConfig": "apps/alofa-portal/tsconfig.app.json",
        "assets": [
          "apps/alofa-portal/src/favicon.ico",
          "apps/alofa-portal/src/assets"
        ],
        "styles": ["apps/alofa-portal/src/styles.scss"],
        "scripts": [],
        "webpackConfig": "apps/alofa-portal/webpack.config.js",
        "isolatedConfig": true,
        "babelUpwardRootMode": true
      },
      "configurations": {
        "development": {
          "extractLicenses": false,
          "optimization": false,
          "sourceMap": true,
          "vendorChunk": true
        },
        "production": {
          "fileReplacements": [
            {
              "replace": "apps/alofa-portal/src/environments/environment.ts",
              "with": "apps/alofa-portal/src/environments/environment.prod.ts"
            }
          ],
          "optimization": true,
          "outputHashing": "all",
          "sourceMap": false,
          "namedChunks": false,
          "extractLicenses": true,
          "vendorChunk": false
        }
      }
    },
    "serve": {
      "executor": "@nrwl/webpack:dev-server",
      "defaultConfiguration": "development",
      "options": {
        "buildTarget": "alofa-portal:build",
        "hmr": true
      },
      "configurations": {
        "development": {
          "buildTarget": "alofa-portal:build:development"
        },
        "production": {
          "buildTarget": "alofa-portal:build:production",
          "hmr": false
        }
      }
    },
    "lint": {
      "executor": "@nrwl/linter:eslint",
      "outputs": ["{options.outputFile}"],
      "options": {
        "lintFilePatterns": ["apps/alofa-portal/**/*.{ts,tsx,js,jsx}"]
      }
    },
    "test": {
      "executor": "@nrwl/jest:jest",
      "outputs": ["{workspaceRoot}/coverage/{projectRoot}"],
      "options": {
        "jestConfig": "apps/alofa-portal/jest.config.ts",
        "passWithNoTests": true
      },
      "configurations": {
        "ci": {
          "ci": true,
          "codeCoverage": true
        }
      }
    }
  }
}
