{
  "name": "alofa-shared-lib",
  "$schema": "../../node_modules/nx/schemas/project-schema.json",
  "sourceRoot": "libs/alofa-shared-lib/src",
  "projectType": "library",
  "tags": [],
  "targets": {
    "lint": {
      "executor": "@nrwl/linter:eslint",
      "outputs": ["{options.outputFile}"],
      "options": {
        "lintFilePatterns": ["libs/alofa-shared-lib/**/*.{ts,tsx,js,jsx}"]
      }
    }
  }
}
