{
  "name": "generated-authentication-end-point-types",
  "$schema": "../../../node_modules/nx/schemas/project-schema.json",
  "tags": [],
  "targets": {
    "lint": {
      "executor": "@nrwl/linter:eslint",
      "outputs": ["{options.outputFile}"],
      "options": {
        "lintFilePatterns": [
          "libs/generated/authentication-end-point-types/**/*.ts"
        ]
      }
    },
    "test": {
      "executor": "@nrwl/jest:jest",
      "outputs": ["{workspaceRoot}/coverage/{projectRoot}"],
      "options": {
        "jestConfig": "libs/generated/authentication-end-point-types/jest.config.ts",
        "passWithNoTests": true
      },
      "configurations": {
        "ci": {
          "ci": true,
          "codeCoverage": true
        }
      }
    }
  },
  "implicitDependencies": ["authentication-end-point-swagger"]
}
