{
  "name": "apis-favourite-alofa.favourite",
  "$schema": "../../../../node_modules/nx/schemas/project-schema.json",
  "projectType": "application",
  "sourceRoot": "apps/apis/favourite",
  "targets": {
    "build": {
      "executor": "@nx-dotnet/core:build",
      "outputs": [
        "{workspaceRoot}/dist/apps/apis/favourite/alofa.favourite",
        "{workspaceRoot}/dist/intermediates/apps/apis/favourite/alofa.favourite"
      ],
      "options": {
        "configuration": "Debug",
        "noDependencies": true
      },
      "configurations": {
        "production": {
          "configuration": "Release"
        }
      }
    },
    "serve": {
      "executor": "@nx-dotnet/core:serve",
      "options": {
        "configuration": "Debug"
      },
      "configurations": {
        "production": {
          "configuration": "Release"
        }
      }
    },
    "build-prod":{
      "executor": "@nx-dotnet/core:publish",
      "outputs": [
        "{workspaceRoot}/dist/apps/apis/favourite"
      ],
      "options": {
        "configuration": "Release"
      }
    },
    "deploy":{
      "executor": "nx:run-commands",
      "options": {
        "commands": [
          "docker build -t alofa-favourite:latest -f ./apps/apis/favourite/Dockerfile ."
        ]
      }
    },
    "lint": {
      "executor": "@nx-dotnet/core:format"
    },
    "swagger": {
      "executor": "@nx-dotnet/core:update-swagger",
      "outputs": ["options.output"],
      "options": {
        "output": "libs/generated/alofa.favourite-swagger/swagger.json"
      },
      "dependsOn": ["build"]
    }
  },
  "tags": []
}
